\BOOKMARK [1][-]{section.1}{\376\377\000I\000n\000t\000r\000o\000d\000u\000c\000t\000i\000o\000n}{}% 1
\BOOKMARK [1][-]{section.2}{\376\377\000T\000y\000p\000e\000s\000\040\000o\000f\000\040\000Q\000u\000e\000u\000e\000s}{}% 2
\BOOKMARK [2][-]{subsection.2.1}{\376\377\000N\000o\000r\000m\000a\000l\000\040\000Q\000u\000e\000u\000e\000s}{section.2}% 3
\BOOKMARK [2][-]{subsection.2.2}{\376\377\000C\000i\000r\000c\000u\000l\000a\000r\000\040\000Q\000u\000e\000u\000e}{section.2}% 4
\BOOKMARK [2][-]{subsection.2.3}{\376\377\000T\000h\000e\000\040\000i\000m\000p\000l\000e\000m\000e\000n\000t\000a\000t\000i\000o\000n\000\040\000o\000f\000\040\000c\000i\000r\000c\000u\000l\000a\000r\000\040\000q\000u\000e\000u\000e\000\040}{section.2}% 5
\BOOKMARK [3][-]{subsubsection.2.3.1}{\376\377\000E\000n\000q\000u\000e\000u\000e}{subsection.2.3}% 6
\BOOKMARK [3][-]{subsubsection.2.3.2}{\376\377\000D\000e\000q\000u\000e\000u\000e}{subsection.2.3}% 7
\BOOKMARK [2][-]{subsection.2.4}{\376\377\000T\000i\000m\000e\000\040\000c\000o\000m\000p\000l\000e\000x\000i\000t\000y\000\040\000o\000f\000\040\000c\000i\000r\000c\000u\000l\000a\000r\000\040\000a\000r\000r\000a\000y\000\040\000q\000u\000e\000u\000e\000\040}{section.2}% 8
\BOOKMARK [1][-]{section.3}{\376\377\000P\000r\000i\000o\000r\000i\000t\000y\000\040\000Q\000u\000e\000u\000e\000s}{}% 9
\BOOKMARK [2][-]{subsection.3.1}{\376\377\000P\000r\000i\000o\000r\000i\000t\000i\000s\000e\000d\000\040\000i\000n\000t\000e\000r\000f\000a\000c\000e}{section.3}% 10
\BOOKMARK [2][-]{subsection.3.2}{\376\377\000L\000i\000n\000k\000e\000d\000P\000r\000i\000o\000r\000i\000t\000y\000Q\000u\000e\000u\000e}{section.3}% 11
\BOOKMARK [2][-]{subsection.3.3}{\376\377\000I\000m\000p\000l\000e\000m\000e\000n\000t\000a\000t\000i\000o\000n\000\040\000o\000f\000\040\000L\000i\000n\000k\000e\000d\000\040\000P\000r\000i\000o\000r\000i\000t\000y\000\040\000Q\000u\000e\000u\000e}{section.3}% 12
\BOOKMARK [3][-]{subsubsection.3.3.1}{\376\377\000E\000n\000q\000u\000e\000u\000e\000\040\000O\000p\000e\000r\000a\000t\000i\000o\000n}{subsection.3.3}% 13
\BOOKMARK [3][-]{subsubsection.3.3.2}{\376\377\000D\000e\000q\000u\000e\000u\000e\000\040\000O\000p\000e\000r\000a\000t\000i\000o\000n}{subsection.3.3}% 14
\BOOKMARK [2][-]{subsection.3.4}{\376\377\000T\000i\000m\000e\000\040\000C\000o\000m\000p\000l\000e\000x\000i\000t\000y\000\040\000f\000o\000r\000\040\000A\000r\000r\000a\000y\000\040\000a\000n\000d\000\040\000L\000i\000n\000k\000e\000d\000l\000i\000s\000t\000\040\000P\000r\000i\000o\000r\000i\000t\000y\000\040\000q\000u\000e\000u\000e\000s}{section.3}% 15
\BOOKMARK [2][-]{subsection.3.5}{\376\377\000P\000r\000i\000o\000r\000i\000t\000y\000\040\000Q\000u\000e\000u\000e\000\040\000-\000\040\000S\000u\000m\000m\000a\000r\000y}{section.3}% 16
\BOOKMARK [1][-]{section.4}{\376\377\000M\000u\000l\000t\000i\000\040\000q\000u\000e\000u\000e}{}% 17
\BOOKMARK [2][-]{subsection.4.1}{\376\377\000W\000h\000y\000\040\000U\000s\000e\000\040\000M\000u\000l\000t\000i\000-\000Q\000u\000e\000u\000e\000s}{section.4}% 18
\BOOKMARK [2][-]{subsection.4.2}{\376\377\000C\000r\000e\000a\000t\000i\000n\000g\000\040\000a\000\040\000M\000u\000l\000t\000i\000-\000Q\000u\000e\000u\000e}{section.4}% 19
\BOOKMARK [3][-]{subsubsection.4.2.1}{\376\377\000S\000i\000m\000p\000l\000e\000\040\000m\000e\000t\000h\000o\000d\000s\000\040\000t\000h\000a\000t\000\040\000a\000r\000e\000\040\000e\000a\000s\000y\000\040\000t\000o\000\040\000i\000m\000p\000l\000e\000m\000e\000n\000t}{subsection.4.2}% 20
\BOOKMARK [3][-]{subsubsection.4.2.2}{\376\377\000D\000e\000q\000u\000e\000u\000e}{subsection.4.2}% 21
\BOOKMARK [3][-]{subsubsection.4.2.3}{\376\377\000E\000n\000q\000u\000e\000u\000e}{subsection.4.2}% 22
\BOOKMARK [3][-]{subsubsection.4.2.4}{\376\377\000C\000l\000e\000a\000r}{subsection.4.2}% 23
\BOOKMARK [2][-]{subsection.4.3}{\376\377\000T\000i\000m\000e\000\040\000C\000o\000m\000p\000l\000e\000x\000i\000t\000y\000\040\000o\000f\000\040\000M\000u\000l\000t\000i\000-\000Q\000u\000e\000u\000e\000s}{section.4}% 24
\BOOKMARK [2][-]{subsection.4.4}{\376\377\000M\000u\000l\000t\000i\000-\000Q\000u\000e\000u\000e\000\040\000S\000u\000m\000m\000a\000r\000y}{section.4}% 25
\BOOKMARK [1][-]{section.5}{\376\377\000T\000y\000p\000i\000c\000a\000l\000\040\000S\000c\000e\000n\000a\000r\000i\000o\000s\000\040\000f\000o\000r\000\040\000a\000\040\000Q\000u\000e\000u\000e}{}% 26
\BOOKMARK [1][-]{section.6}{\376\377\000U\000s\000e\000s\000\040\000o\000f\000\040\000Q\000u\000e\000u\000e\000s\000\040}{}% 27
\BOOKMARK [2][-]{subsection.6.1}{\376\377\000Q\000u\000e\000u\000e\000s\000\040\000u\000s\000e\000d\000\040\000i\000n\000\040\000T\000h\000r\000e\000a\000d\000s}{section.6}% 28
\BOOKMARK [2][-]{subsection.6.2}{\376\377\000B\000l\000o\000c\000k\000i\000n\000g\000\040\000Q\000u\000e\000u\000e}{section.6}% 29
\BOOKMARK [3][-]{subsubsection.6.2.1}{\376\377\000T\000i\000c\000k\000e\000t\000\040\000B\000o\000o\000t\000h}{subsection.6.2}% 30
\BOOKMARK [3][-]{subsubsection.6.2.2}{\376\377\000D\000e\000l\000i\000v\000e\000r\000y\000\040\000S\000e\000r\000v\000i\000c\000e\000\040\000-\000\040\000G\000r\000o\000c\000e\000r\0004\000u\000\040\000C\000a\000s\000e\000\040\000S\000t\000u\000d\000y}{subsection.6.2}% 31
\BOOKMARK [1][-]{section.7}{\376\377\000Q\000u\000e\000u\000e\000\040\000i\000n\000\040\000J\000C\000F\000\040}{}% 32
\BOOKMARK [2][-]{subsection.7.1}{\376\377\000P\000r\000i\000o\000r\000i\000t\000y\000Q\000u\000e\000u\000e}{section.7}% 33
\BOOKMARK [2][-]{subsection.7.2}{\376\377\000T\000r\000a\000n\000s\000f\000e\000r\000Q\000u\000e\000u\000e}{section.7}% 34
\BOOKMARK [2][-]{subsection.7.3}{\376\377\000L\000i\000n\000k\000e\000d\000L\000i\000s\000t\000\040\000i\000m\000p\000l\000e\000m\000e\000n\000t\000s\000\040\000Q\000u\000e\000u\000e}{section.7}% 35
\BOOKMARK [1][-]{section.8}{\376\377\000M\000e\000t\000h\000o\000d\000s\000\040\000p\000r\000o\000v\000i\000d\000e\000d\000\040\000b\000y\000\040\000j\000a\000v\000a\000.\000u\000t\000i\000l\000.\000Q\000u\000e\000u\000e}{}% 36
\BOOKMARK [2][-]{subsection.8.1}{\376\377\000A\000d\000d}{section.8}% 37
\BOOKMARK [2][-]{subsection.8.2}{\376\377\000E\000l\000e\000m\000e\000n\000t}{section.8}% 38
\BOOKMARK [2][-]{subsection.8.3}{\376\377\000O\000f\000f\000e\000r}{section.8}% 39
\BOOKMARK [2][-]{subsection.8.4}{\376\377\000P\000e\000e\000k}{section.8}% 40
\BOOKMARK [2][-]{subsection.8.5}{\376\377\000P\000o\000l\000l}{section.8}% 41
\BOOKMARK [2][-]{subsection.8.6}{\376\377\000R\000e\000m\000o\000v\000e}{section.8}% 42
