\relax 
\providecommand\hyper@newdestlabel[2]{}
\providecommand\babel@aux[2]{}
\@nameuse{bbl@beforestart}
\providecommand\HyperFirstAtBeginDocument{\AtBeginDocument}
\HyperFirstAtBeginDocument{\ifx\hyper@anchor\@undefined
\global\let\oldcontentsline\contentsline
\gdef\contentsline#1#2#3#4{\oldcontentsline{#1}{#2}{#3}}
\global\let\oldnewlabel\newlabel
\gdef\newlabel#1#2{\newlabelxx{#1}#2}
\gdef\newlabelxx#1#2#3#4#5#6{\oldnewlabel{#1}{{#2}{#3}}}
\AtEndDocument{\ifx\hyper@anchor\@undefined
\let\contentsline\oldcontentsline
\let\newlabel\oldnewlabel
\fi}
\fi}
\global\let\hyper@last\relax 
\gdef\HyperFirstAtBeginDocument#1{#1}
\providecommand\HyField@AuxAddToFields[1]{}
\providecommand\HyField@AuxAddToCoFields[2]{}
\babel@aux{english}{}
\@writefile{toc}{\contentsline {section}{\numberline {1}Introduction}{1}{section.1}\protected@file@percent }
\newlabel{fig:objective}{{1}{1}{Introduction}{section.1}{}}
\@writefile{toc}{\contentsline {section}{\numberline {2}Types of Queues}{1}{section.2}\protected@file@percent }
\@writefile{toc}{\contentsline {subsection}{\numberline {2.1}Normal Queues}{1}{subsection.2.1}\protected@file@percent }
\@writefile{lof}{\contentsline {figure}{\numberline {1}{\ignorespaces Represents a circular queue, and an unbounded circular queue array.}}{2}{figure.1}\protected@file@percent }
\newlabel{fig:circular_queue}{{1}{2}{Represents a circular queue, and an unbounded circular queue array}{figure.1}{}}
\@writefile{toc}{\contentsline {subsection}{\numberline {2.2}Circular Queue}{2}{subsection.2.2}\protected@file@percent }
\@writefile{toc}{\contentsline {subsection}{\numberline {2.3}The implementation of circular queue }{2}{subsection.2.3}\protected@file@percent }
\@writefile{toc}{\contentsline {subsubsection}{\numberline {2.3.1}Enqueue}{2}{subsubsection.2.3.1}\protected@file@percent }
\@writefile{toc}{\contentsline {subsubsection}{\numberline {2.3.2}Dequeue}{3}{subsubsection.2.3.2}\protected@file@percent }
\@writefile{toc}{\contentsline {subsection}{\numberline {2.4}Time complexity of circular array queue }{3}{subsection.2.4}\protected@file@percent }
\@writefile{toc}{\contentsline {section}{\numberline {3}Priority Queues}{3}{section.3}\protected@file@percent }
\@writefile{toc}{\contentsline {subsection}{\numberline {3.1}Prioritised interface}{3}{subsection.3.1}\protected@file@percent }
\@writefile{toc}{\contentsline {subsection}{\numberline {3.2}LinkedPriorityQueue}{4}{subsection.3.2}\protected@file@percent }
\@writefile{lof}{\contentsline {figure}{\numberline {2}{\ignorespaces Represents a linear-queue structure which stores and manages elements according to their priority level which is the type of {\ttfamily  {int}}. \newline  \newline  As you can see here, when we insert elements into the queue, we need to shift the nodes in the linear linked list structure in order to sort the elements at the priority starting with important priority which holds the smallest priority level.}}{5}{figure.2}\protected@file@percent }
\newlabel{fig:linear-queue}{{2}{5}{Represents a linear-queue structure which stores and manages elements according to their priority level which is the type of {\ttfamily {int}}. \newline \newline As you can see here, when we insert elements into the queue, we need to shift the nodes in the linear linked list structure in order to sort the elements at the priority starting with important priority which holds the smallest priority level}{figure.2}{}}
\@writefile{toc}{\contentsline {subsection}{\numberline {3.3}Implementation of Linked Priority Queue}{5}{subsection.3.3}\protected@file@percent }
\@writefile{toc}{\contentsline {subsubsection}{\numberline {3.3.1}Enqueue Operation}{5}{subsubsection.3.3.1}\protected@file@percent }
\@writefile{toc}{\contentsline {subsubsection}{\numberline {3.3.2}Dequeue Operation}{6}{subsubsection.3.3.2}\protected@file@percent }
\@writefile{toc}{\contentsline {subsection}{\numberline {3.4}Time Complexity for Array and Linkedlist Priority queues}{6}{subsection.3.4}\protected@file@percent }
\@writefile{toc}{\contentsline {subsection}{\numberline {3.5}Priority Queue - Summary}{7}{subsection.3.5}\protected@file@percent }
\@writefile{toc}{\contentsline {section}{\numberline {4}Multi queue}{7}{section.4}\protected@file@percent }
\@writefile{lof}{\contentsline {figure}{\numberline {3}{\ignorespaces Represents a multi-queue structure which stores a list of queues for managing the element according to the queue's priority.}}{7}{figure.3}\protected@file@percent }
\newlabel{fig:multi-queue}{{3}{7}{Represents a multi-queue structure which stores a list of queues for managing the element according to the queue's priority}{figure.3}{}}
\@writefile{toc}{\contentsline {subsection}{\numberline {4.1}Why Use Multi-Queues}{7}{subsection.4.1}\protected@file@percent }
\@writefile{toc}{\contentsline {subsection}{\numberline {4.2}Creating a Multi-Queue}{8}{subsection.4.2}\protected@file@percent }
\@writefile{toc}{\contentsline {subsubsection}{\numberline {4.2.1}Simple methods that are easy to implement}{8}{subsubsection.4.2.1}\protected@file@percent }
\@writefile{toc}{\contentsline {subsubsection}{\numberline {4.2.2}Dequeue}{8}{subsubsection.4.2.2}\protected@file@percent }
\@writefile{toc}{\contentsline {subsubsection}{\numberline {4.2.3}Enqueue}{8}{subsubsection.4.2.3}\protected@file@percent }
\@writefile{toc}{\contentsline {subsubsection}{\numberline {4.2.4}Clear}{9}{subsubsection.4.2.4}\protected@file@percent }
\@writefile{toc}{\contentsline {subsection}{\numberline {4.3}Time Complexity of Multi-Queues}{9}{subsection.4.3}\protected@file@percent }
\@writefile{toc}{\contentsline {subsection}{\numberline {4.4}Multi-Queue Summary}{9}{subsection.4.4}\protected@file@percent }
\@writefile{toc}{\contentsline {section}{\numberline {5}Typical Scenarios for a Queue}{9}{section.5}\protected@file@percent }
\@writefile{toc}{\contentsline {section}{\numberline {6}Uses of Queues }{10}{section.6}\protected@file@percent }
\@writefile{toc}{\contentsline {subsection}{\numberline {6.1}Queues used in Threads}{10}{subsection.6.1}\protected@file@percent }
\@writefile{lof}{\contentsline {figure}{\numberline {4}{\ignorespaces Represents a queue being used for a multi-threaded application}}{10}{figure.4}\protected@file@percent }
\newlabel{fig:thread}{{4}{10}{Represents a queue being used for a multi-threaded application}{figure.4}{}}
\@writefile{toc}{\contentsline {subsection}{\numberline {6.2}Blocking Queue}{10}{subsection.6.2}\protected@file@percent }
\@writefile{toc}{\contentsline {subsubsection}{\numberline {6.2.1}Ticket Booth}{11}{subsubsection.6.2.1}\protected@file@percent }
\@writefile{toc}{\contentsline {subsubsection}{\numberline {6.2.2}Delivery Service - Grocer4u Case Study}{11}{subsubsection.6.2.2}\protected@file@percent }
\@writefile{toc}{\contentsline {section}{\numberline {7}Queue in JCF }{12}{section.7}\protected@file@percent }
\@writefile{toc}{\contentsline {subsection}{\numberline {7.1}PriorityQueue}{12}{subsection.7.1}\protected@file@percent }
\@writefile{toc}{\contentsline {subsection}{\numberline {7.2}TransferQueue}{12}{subsection.7.2}\protected@file@percent }
\@writefile{toc}{\contentsline {subsection}{\numberline {7.3}LinkedList implements Queue}{12}{subsection.7.3}\protected@file@percent }
\@writefile{toc}{\contentsline {section}{\numberline {8}Methods provided by java.util.Queue}{13}{section.8}\protected@file@percent }
\@writefile{toc}{\contentsline {subsection}{\numberline {8.1}Add}{13}{subsection.8.1}\protected@file@percent }
\@writefile{toc}{\contentsline {subsection}{\numberline {8.2}Element}{13}{subsection.8.2}\protected@file@percent }
\@writefile{toc}{\contentsline {subsection}{\numberline {8.3}Offer}{13}{subsection.8.3}\protected@file@percent }
\@writefile{toc}{\contentsline {subsection}{\numberline {8.4}Peek}{13}{subsection.8.4}\protected@file@percent }
\@writefile{toc}{\contentsline {subsection}{\numberline {8.5}Poll}{13}{subsection.8.5}\protected@file@percent }
\@writefile{toc}{\contentsline {subsection}{\numberline {8.6}Remove}{13}{subsection.8.6}\protected@file@percent }
\gdef \@abspage@last{13}
