\relax 
\providecommand\hyper@newdestlabel[2]{}
\providecommand\HyperFirstAtBeginDocument{\AtBeginDocument}
\HyperFirstAtBeginDocument{\ifx\hyper@anchor\@undefined
\global\let\oldcontentsline\contentsline
\gdef\contentsline#1#2#3#4{\oldcontentsline{#1}{#2}{#3}}
\global\let\oldnewlabel\newlabel
\gdef\newlabel#1#2{\newlabelxx{#1}#2}
\gdef\newlabelxx#1#2#3#4#5#6{\oldnewlabel{#1}{{#2}{#3}}}
\AtEndDocument{\ifx\hyper@anchor\@undefined
\let\contentsline\oldcontentsline
\let\newlabel\oldnewlabel
\fi}
\fi}
\global\let\hyper@last\relax 
\gdef\HyperFirstAtBeginDocument#1{#1}
\providecommand\HyField@AuxAddToFields[1]{}
\providecommand\HyField@AuxAddToCoFields[2]{}
\providecommand\BKM@entry[2]{}
\BKM@entry{id=1,dest={636861707465722E31},srcline={11}}{5C3337365C3337375C303030415C303030675C303030655C3030306E5C303030745C303030735C3030305C3034305C303030615C3030306E5C303030645C3030305C3034305C303030455C3030306E5C303030765C303030695C303030725C3030306F5C3030306E5C3030306D5C303030655C3030306E5C303030745C30303073}
\BKM@entry{id=2,dest={73656374696F6E2E312E31},srcline={13}}{5C3337365C3337375C303030415C303030635C303030745C303030755C303030615C303030745C3030306F5C303030725C30303073}
\BKM@entry{id=3,dest={73656374696F6E2E312E32},srcline={14}}{5C3337365C3337375C303030445C303030695C303030665C303030665C303030655C303030725C303030655C3030306E5C303030745C3030305C3034305C303030745C303030795C303030705C303030655C303030735C3030305C3034305C3030306F5C303030665C3030305C3034305C303030615C303030675C303030655C3030306E5C303030745C30303073}
\BKM@entry{id=4,dest={73756273656374696F6E2E312E322E31},srcline={15}}{5C3337365C3337375C303030485C303030755C3030306D5C303030615C3030306E5C3030305C3034305C303030415C303030675C303030655C3030306E5C303030745C30303073}
\BKM@entry{id=5,dest={73756273656374696F6E2E312E322E32},srcline={18}}{5C3337365C3337375C303030525C3030306F5C303030625C3030306F5C303030745C303030695C303030635C3030305C3034305C303030415C303030675C303030655C3030306E5C303030745C30303073}
\BKM@entry{id=6,dest={73756273656374696F6E2E312E322E33},srcline={21}}{5C3337365C3337375C303030535C3030306F5C303030665C303030745C303030775C303030615C303030725C303030655C3030305C3034305C303030415C303030675C303030655C3030306E5C303030745C30303073}
\BKM@entry{id=7,dest={73656374696F6E2E312E33},srcline={24}}{5C3337365C3337375C303030505C303030725C303030655C303030635C303030655C303030705C30303074}
\BKM@entry{id=8,dest={73756273656374696F6E2E312E332E31},srcline={26}}{5C3337365C3337375C303030505C303030655C303030725C303030635C303030655C303030705C303030745C3030305C3034305C303030735C303030655C303030715C303030755C303030655C3030306E5C303030635C30303065}
\BKM@entry{id=9,dest={73756273656374696F6E2E312E332E32},srcline={29}}{5C3337365C3337375C303030415C303030675C303030655C3030306E5C303030745C3030305C3034305C303030665C303030755C3030306E5C303030635C303030745C303030695C3030306F5C3030306E}
\@writefile{toc}{\contentsline {chapter}{\numberline {1}Agents and Environments}{1}{chapter.1}\protected@file@percent }
\@writefile{lof}{\addvspace {10\p@ }}
\@writefile{lot}{\addvspace {10\p@ }}
\@writefile{toc}{\contentsline {section}{\numberline {1.1}Actuators}{1}{section.1.1}\protected@file@percent }
\@writefile{toc}{\contentsline {section}{\numberline {1.2}Different types of agents}{1}{section.1.2}\protected@file@percent }
\@writefile{toc}{\contentsline {subsection}{\numberline {1.2.1}Human Agents}{1}{subsection.1.2.1}\protected@file@percent }
\@writefile{toc}{\contentsline {subsection}{\numberline {1.2.2}Robotic Agents}{1}{subsection.1.2.2}\protected@file@percent }
\@writefile{toc}{\contentsline {subsection}{\numberline {1.2.3}Software Agents}{1}{subsection.1.2.3}\protected@file@percent }
\@writefile{toc}{\contentsline {section}{\numberline {1.3}Precept}{1}{section.1.3}\protected@file@percent }
\@writefile{toc}{\contentsline {subsection}{\numberline {1.3.1}Percept sequence}{1}{subsection.1.3.1}\protected@file@percent }
\BKM@entry{id=10,dest={73756273656374696F6E2E312E332E33},srcline={38}}{5C3337365C3337375C303030415C303030675C303030655C3030306E5C303030745C3030305C3034305C303030705C303030725C3030306F5C303030675C303030725C303030615C3030306D}
\@writefile{lof}{\contentsline {figure}{\numberline {1.1}{\ignorespaces Agents interact within the environment through sensors and actuators.}}{2}{figure.1.1}\protected@file@percent }
\newlabel{fig:agentfunction}{{1.1}{2}{Agents interact within the environment through sensors and actuators}{figure.1.1}{}}
\@writefile{toc}{\contentsline {subsection}{\numberline {1.3.2}Agent function}{2}{subsection.1.3.2}\protected@file@percent }
\@writefile{toc}{\contentsline {subsection}{\numberline {1.3.3}Agent program}{2}{subsection.1.3.3}\protected@file@percent }
\@writefile{toc}{\contentsline {subsubsection}{An example of agent program}{2}{section*.1}\protected@file@percent }
\@writefile{lof}{\contentsline {figure}{\numberline {1.2}{\ignorespaces Vacuum cleaner with two locations}}{2}{figure.1.2}\protected@file@percent }
\newlabel{fig:vacuumagent}{{1.2}{2}{Vacuum cleaner with two locations}{figure.1.2}{}}
\@writefile{lof}{\contentsline {figure}{\numberline {1.3}{\ignorespaces Outlines the agent function of a vacuum cleaner world in a table.}}{2}{figure.1.3}\protected@file@percent }
\newlabel{fig:vacuumagentfunction}{{1.3}{2}{Outlines the agent function of a vacuum cleaner world in a table}{figure.1.3}{}}
\BKM@entry{id=11,dest={636861707465722E32},srcline={59}}{5C3337365C3337375C303030525C303030615C303030745C303030695C3030306F5C3030306E5C303030615C3030306C5C303030695C303030745C30303079}
\BKM@entry{id=12,dest={73756273656374696F6E2E322E302E31},srcline={62}}{5C3337365C3337375C303030505C303030655C303030725C303030665C3030306F5C303030725C3030306D5C303030615C3030306E5C303030635C303030655C3030305C3034305C3030304D5C303030655C303030615C303030735C303030755C303030725C30303065}
\BKM@entry{id=13,dest={73756273656374696F6E2E322E302E32},srcline={73}}{5C3337365C3337375C303030525C303030615C303030745C303030695C3030306F5C3030306E5C303030615C3030306C5C303030695C303030745C30303079}
\@writefile{toc}{\contentsline {chapter}{\numberline {2}Rationality}{4}{chapter.2}\protected@file@percent }
\@writefile{lof}{\addvspace {10\p@ }}
\@writefile{lot}{\addvspace {10\p@ }}
\@writefile{toc}{\contentsline {subsection}{\numberline {2.0.1}Performance Measure}{4}{subsection.2.0.1}\protected@file@percent }
\@writefile{toc}{\contentsline {subsubsection}{Example of Performance Measure}{4}{section*.2}\protected@file@percent }
\@writefile{toc}{\contentsline {subsection}{\numberline {2.0.2}Rationality}{4}{subsection.2.0.2}\protected@file@percent }
\BKM@entry{id=14,dest={73756273656374696F6E2E322E302E33},srcline={103}}{5C3337365C3337375C3030304F5C3030306D5C3030306E5C303030695C303030735C303030635C303030695C303030655C3030306E5C303030635C30303065}
\BKM@entry{id=15,dest={73756273656374696F6E2E322E302E34},srcline={115}}{5C3337365C3337375C303030495C3030306E5C303030665C3030306F5C303030725C3030306D5C303030615C303030745C303030695C3030306F5C3030306E5C3030305C3034305C303030475C303030615C303030745C303030685C303030655C303030725C303030695C3030306E5C30303067}
\BKM@entry{id=16,dest={73756273656374696F6E2E322E302E35},srcline={118}}{5C3337365C3337375C303030455C303030785C303030705C3030306C5C3030306F5C303030725C303030615C303030745C303030695C3030306F5C3030306E}
\@writefile{toc}{\contentsline {subsection}{\numberline {2.0.3}Omniscience}{5}{subsection.2.0.3}\protected@file@percent }
\@writefile{toc}{\contentsline {subsection}{\numberline {2.0.4}Information Gathering}{5}{subsection.2.0.4}\protected@file@percent }
\BKM@entry{id=17,dest={73756273656374696F6E2E322E302E36},srcline={120}}{5C3337365C3337375C3030304C5C303030655C303030615C303030725C3030306E5C303030695C3030306E5C30303067}
\BKM@entry{id=18,dest={73756273656374696F6E2E322E302E37},srcline={122}}{5C3337365C3337375C303030415C303030755C303030745C3030306F5C3030306E5C3030306F5C3030306D5C30303079}
\@writefile{toc}{\contentsline {subsection}{\numberline {2.0.5}Exploration}{6}{subsection.2.0.5}\protected@file@percent }
\@writefile{toc}{\contentsline {subsection}{\numberline {2.0.6}Learning}{6}{subsection.2.0.6}\protected@file@percent }
\@writefile{toc}{\contentsline {subsection}{\numberline {2.0.7}Autonomy}{6}{subsection.2.0.7}\protected@file@percent }
\BKM@entry{id=19,dest={636861707465722E33},srcline={126}}{5C3337365C3337375C3030304E5C303030615C303030745C303030755C303030725C303030655C3030305C3034305C3030306F5C303030665C3030305C3034305C303030455C3030306E5C303030765C303030695C303030725C3030306F5C3030306E5C3030306D5C303030655C3030306E5C303030745C30303073}
\BKM@entry{id=20,dest={73656374696F6E2E332E31},srcline={127}}{5C3337365C3337375C303030545C303030615C303030735C3030306B5C3030305C3034305C303030455C3030306E5C303030765C303030695C303030725C3030306F5C3030306E5C3030306D5C303030655C3030306E5C303030745C30303073}
\BKM@entry{id=21,dest={73756273656374696F6E2E332E312E31},srcline={129}}{5C3337365C3337375C303030535C303030705C303030655C303030635C303030695C303030665C303030795C303030695C3030306E5C303030675C3030305C3034305C303030745C303030615C303030735C3030306B5C3030305C3034305C303030655C3030306E5C303030765C303030695C303030725C3030306F5C3030306E5C3030306D5C303030655C3030306E5C30303074}
\BKM@entry{id=22,dest={73656374696F6E2E332E32},srcline={140}}{5C3337365C3337375C303030455C3030306E5C303030765C303030695C303030725C3030306F5C3030306E5C3030306D5C303030655C3030306E5C303030745C3030305C3034305C303030545C303030795C303030705C303030655C30303073}
\BKM@entry{id=23,dest={73756273656374696F6E2E332E322E31},srcline={141}}{5C3337365C3337375C303030465C303030755C3030306C5C3030306C5C303030795C3030305C3034305C3030304F5C303030625C303030735C303030655C303030725C303030765C303030615C303030625C3030306C5C30303065}
\@writefile{toc}{\contentsline {chapter}{\numberline {3}Nature of Environments}{7}{chapter.3}\protected@file@percent }
\@writefile{lof}{\addvspace {10\p@ }}
\@writefile{lot}{\addvspace {10\p@ }}
\@writefile{toc}{\contentsline {section}{\numberline {3.1}Task Environments}{7}{section.3.1}\protected@file@percent }
\@writefile{toc}{\contentsline {subsection}{\numberline {3.1.1}Specifying task environment}{7}{subsection.3.1.1}\protected@file@percent }
\@writefile{lof}{\contentsline {figure}{\numberline {3.1}{\ignorespaces Represents the task environment of an \textbf  {\textit  {automated}} taxi, the agent type is the \textbf  {taxi driver}, the performance measure assesses the \textbf  {\textit  {safety}} of the vehicle/passengers, \textbf  {\textit  {speed}}, \textbf  {\textit  {following}} the law, \textbf  {\textit  {comfort}} of journeys, \textbf  {\textit  {profits}}, environment is a \textbf  {\textit  {public}} road, actuators are the \textbf  {\textit  {typical}} controls of a vehicle, sensors are also the \textbf  {\textit  {typical}} sensors of a vehicle, including a camera for \textbf  {\textit  {percepting}} the environment, and keyboard.}}{7}{figure.3.1}\protected@file@percent }
\newlabel{fig:peastaxi}{{3.1}{7}{Represents the task environment of an \textbf {\textit {automated}} taxi, the agent type is the \textbf {taxi driver}, the performance measure assesses the \textbf {\textit {safety}} of the vehicle/passengers, \textbf {\textit {speed}}, \textbf {\textit {following}} the law, \textbf {\textit {comfort}} of journeys, \textbf {\textit {profits}}, environment is a \textbf {\textit {public}} road, actuators are the \textbf {\textit {typical}} controls of a vehicle, sensors are also the \textbf {\textit {typical}} sensors of a vehicle, including a camera for \textbf {\textit {percepting}} the environment, and keyboard}{figure.3.1}{}}
\BKM@entry{id=24,dest={73756273656374696F6E2E332E322E32},srcline={143}}{5C3337365C3337375C303030505C303030615C303030725C303030745C303030695C303030615C3030306C5C3030305C3034305C3030304F5C303030625C303030735C303030655C303030725C303030765C303030615C303030625C3030306C5C30303065}
\BKM@entry{id=25,dest={73756273656374696F6E2E332E322E33},srcline={146}}{5C3337365C3337375C303030535C303030695C3030306E5C303030675C3030306C5C303030655C3030305C3034305C303030615C303030675C303030655C3030306E5C30303074}
\BKM@entry{id=26,dest={73756273656374696F6E2E332E322E34},srcline={148}}{5C3337365C3337375C3030304D5C303030755C3030306C5C303030745C303030695C3030302D5C303030615C303030675C303030655C3030306E5C30303074}
\BKM@entry{id=27,dest={73756273656374696F6E2E332E322E35},srcline={150}}{5C3337365C3337375C303030435C3030306F5C3030306D5C303030705C303030655C303030745C303030695C303030745C303030695C303030765C30303065}
\BKM@entry{id=28,dest={73756273656374696F6E2E332E322E36},srcline={152}}{5C3337365C3337375C303030435C3030306F5C3030306F5C303030705C303030655C303030725C303030615C303030745C303030695C303030765C30303065}
\BKM@entry{id=29,dest={73756273656374696F6E2E332E322E37},srcline={154}}{5C3337365C3337375C303030445C303030655C303030745C303030655C303030725C3030306D5C303030695C3030306E5C303030695C303030735C303030745C303030695C30303063}
\BKM@entry{id=30,dest={73756273656374696F6E2E332E322E38},srcline={156}}{5C3337365C3337375C303030535C303030745C3030306F5C303030635C303030685C303030615C303030735C303030745C303030695C30303063}
\BKM@entry{id=31,dest={73756273656374696F6E2E332E322E39},srcline={158}}{5C3337365C3337375C303030455C303030705C303030695C303030735C3030306F5C303030645C303030695C30303063}
\BKM@entry{id=32,dest={73756273656374696F6E2E332E322E3130},srcline={160}}{5C3337365C3337375C303030535C303030655C303030715C303030755C303030655C3030306E5C303030745C303030695C303030615C3030306C}
\BKM@entry{id=33,dest={73756273656374696F6E2E332E322E3131},srcline={162}}{5C3337365C3337375C303030535C303030745C303030615C303030745C303030695C303030635C3030305C3034305C303030615C3030306E5C303030645C3030305C3034305C303030445C303030795C3030306E5C303030615C3030306D5C303030695C30303063}
\@writefile{toc}{\contentsline {section}{\numberline {3.2}Environment Types}{8}{section.3.2}\protected@file@percent }
\@writefile{toc}{\contentsline {subsection}{\numberline {3.2.1}Fully Observable}{8}{subsection.3.2.1}\protected@file@percent }
\@writefile{toc}{\contentsline {subsection}{\numberline {3.2.2}Partial Observable}{8}{subsection.3.2.2}\protected@file@percent }
\@writefile{toc}{\contentsline {subsection}{\numberline {3.2.3}Single agent}{8}{subsection.3.2.3}\protected@file@percent }
\@writefile{toc}{\contentsline {subsection}{\numberline {3.2.4}Multi-agent}{8}{subsection.3.2.4}\protected@file@percent }
\@writefile{toc}{\contentsline {subsection}{\numberline {3.2.5}Competitive}{8}{subsection.3.2.5}\protected@file@percent }
\@writefile{toc}{\contentsline {subsection}{\numberline {3.2.6}Cooperative}{8}{subsection.3.2.6}\protected@file@percent }
\@writefile{toc}{\contentsline {subsection}{\numberline {3.2.7}Deterministic}{8}{subsection.3.2.7}\protected@file@percent }
\@writefile{toc}{\contentsline {subsection}{\numberline {3.2.8}Stochastic}{8}{subsection.3.2.8}\protected@file@percent }
\@writefile{toc}{\contentsline {subsection}{\numberline {3.2.9}Episodic}{8}{subsection.3.2.9}\protected@file@percent }
\@writefile{toc}{\contentsline {subsection}{\numberline {3.2.10}Sequential}{8}{subsection.3.2.10}\protected@file@percent }
\BKM@entry{id=34,dest={73756273656374696F6E2E332E322E3132},srcline={164}}{5C3337365C3337375C3030304B5C3030306E5C3030306F5C303030775C3030306E5C3030305C3034305C303030615C3030306E5C303030645C3030305C3034305C303030555C3030306E5C3030306B5C3030306E5C3030306F5C303030775C3030306E}
\BKM@entry{id=35,dest={73756273656374696F6E2E332E322E3133},srcline={166}}{5C3337365C3337375C303030435C3030306F5C3030306E5C303030745C303030695C3030306E5C303030755C3030306F5C303030755C303030735C3030305C3034305C303030615C3030306E5C303030645C3030305C3034305C303030445C303030695C303030735C303030635C303030725C303030655C303030745C30303065}
\BKM@entry{id=36,dest={73656374696F6E2E332E33},srcline={168}}{5C3337365C3337375C303030445C303030695C303030665C303030665C303030655C303030725C303030655C3030306E5C303030745C303030695C303030615C303030745C303030695C3030306E5C303030675C3030305C3034305C303030625C303030655C303030745C303030775C303030655C303030655C3030306E5C3030305C3034305C303030455C3030306E5C303030765C303030695C303030725C3030306F5C3030306E5C3030306D5C303030655C3030306E5C303030745C3030305C3034305C303030745C303030795C303030705C303030655C30303073}
\@writefile{toc}{\contentsline {subsection}{\numberline {3.2.11}Static and Dynamic}{9}{subsection.3.2.11}\protected@file@percent }
\@writefile{toc}{\contentsline {subsection}{\numberline {3.2.12}Known and Unknown}{9}{subsection.3.2.12}\protected@file@percent }
\@writefile{toc}{\contentsline {subsection}{\numberline {3.2.13}Continuous and Discrete}{9}{subsection.3.2.13}\protected@file@percent }
\@writefile{toc}{\contentsline {section}{\numberline {3.3}Differentiating between Environment types}{9}{section.3.3}\protected@file@percent }
\BKM@entry{id=37,dest={73756273656374696F6E2E332E332E31},srcline={189}}{5C3337365C3337375C303030455C303030785C303030615C3030306D5C303030705C3030306C5C303030655C3030305C3034305C3030306F5C303030665C3030305C3034305C303030455C3030306E5C303030765C303030695C303030725C3030306F5C3030306E5C3030306D5C303030655C3030306E5C303030745C303030735C3030305C3034305C303030615C3030306E5C303030645C3030305C3034305C303030435C303030685C303030615C303030725C303030615C303030635C303030745C303030655C303030725C303030695C303030735C303030745C303030695C303030635C30303073}
\@writefile{toc}{\contentsline {subsection}{\numberline {3.3.1}Example of Environments and Characteristics}{10}{subsection.3.3.1}\protected@file@percent }
\@writefile{lof}{\contentsline {figure}{\numberline {3.2}{\ignorespaces Examples of task environments and their characteristics. However it depends on \textbf  {\textit  {how}} the task environment was defined.}}{10}{figure.3.2}\protected@file@percent }
\newlabel{fig:peas2}{{3.2}{10}{Examples of task environments and their characteristics. However it depends on \textbf {\textit {how}} the task environment was defined}{figure.3.2}{}}
\BKM@entry{id=38,dest={636861707465722E34},srcline={197}}{5C3337365C3337375C303030415C303030675C303030655C3030306E5C303030745C303030735C3030305C3034305C303030535C303030745C303030725C303030755C303030635C303030745C303030755C303030725C30303065}
\BKM@entry{id=39,dest={73656374696F6E2E342E31},srcline={200}}{5C3337365C3337375C303030415C303030675C303030655C3030306E5C303030745C3030305C3034305C303030505C303030725C3030306F5C303030675C303030725C303030615C3030306D5C30303073}
\BKM@entry{id=40,dest={73756273656374696F6E2E342E312E31},srcline={201}}{5C3337365C3337375C303030425C303030615C303030735C303030695C303030735C3030305C3034305C3030306F5C303030665C3030305C3034305C303030415C303030675C303030655C3030306E5C303030745C3030305C3034305C303030535C303030745C303030725C303030755C303030635C303030745C303030755C303030725C303030655C30303073}
\BKM@entry{id=41,dest={73756273656374696F6E2E342E312E32},srcline={211}}{5C3337365C3337375C303030545C303030615C303030625C3030306C5C303030655C3030302D5C3030306C5C3030306F5C3030306F5C3030306B5C303030755C303030705C3030305C3034305C303030615C303030675C303030655C3030306E5C30303074}
\@writefile{toc}{\contentsline {chapter}{\numberline {4}Agents Structure}{11}{chapter.4}\protected@file@percent }
\@writefile{lof}{\addvspace {10\p@ }}
\@writefile{lot}{\addvspace {10\p@ }}
\@writefile{toc}{\contentsline {section}{\numberline {4.1}Agent Programs}{11}{section.4.1}\protected@file@percent }
\@writefile{toc}{\contentsline {subsection}{\numberline {4.1.1}Basis of Agent Structures}{11}{subsection.4.1.1}\protected@file@percent }
\@writefile{toc}{\contentsline {subsection}{\numberline {4.1.2}Table-lookup agent}{11}{subsection.4.1.2}\protected@file@percent }
\@writefile{lof}{\contentsline {figure}{\numberline {4.1}{\ignorespaces Represents the Pseudocode of a table lookup agent. A table lookup agent that is responsible of performing actions to make a decision based on index given to the table.}}{11}{figure.4.1}\protected@file@percent }
\newlabel{fig:tablelookupagent}{{4.1}{11}{Represents the Pseudocode of a table lookup agent. A table lookup agent that is responsible of performing actions to make a decision based on index given to the table}{figure.4.1}{}}
\BKM@entry{id=42,dest={73756273656374696F6E2E342E312E33},srcline={224}}{5C3337365C3337375C303030415C303030675C303030655C3030306E5C303030745C3030305C3034305C303030745C303030795C303030705C303030655C30303073}
\BKM@entry{id=43,dest={73756273656374696F6E2E342E312E34},srcline={234}}{5C3337365C3337375C303030535C303030695C3030306D5C303030705C3030306C5C303030655C3030305C3034305C303030725C303030655C303030665C3030306C5C303030655C303030785C3030305C3034305C303030615C303030675C303030655C3030306E5C303030745C30303073}
\@writefile{toc}{\contentsline {subsection}{\numberline {4.1.3}Agent types}{12}{subsection.4.1.3}\protected@file@percent }
\@writefile{toc}{\contentsline {subsection}{\numberline {4.1.4}Simple reflex agents}{12}{subsection.4.1.4}\protected@file@percent }
\@writefile{lof}{\contentsline {figure}{\numberline {4.2}{\ignorespaces Summarises Simple Reflex Agent}}{12}{figure.4.2}\protected@file@percent }
\newlabel{fig:simple-reflex-agent}{{4.2}{12}{Summarises Simple Reflex Agent}{figure.4.2}{}}
\BKM@entry{id=44,dest={73756273656374696F6E2E342E312E35},srcline={257}}{5C3337365C3337375C3030304D5C3030306F5C303030645C303030655C3030306C5C3030302D5C303030625C303030615C303030735C303030655C303030645C3030305C3034305C303030725C303030655C303030665C3030306C5C303030655C303030785C3030305C3034305C303030615C303030675C303030655C3030306E5C303030745C30303073}
\@writefile{lof}{\contentsline {figure}{\numberline {4.3}{\ignorespaces Represents a simple-reflex agent. The refex agent provides a library with a set of rules, such as if a situation arises, whilst part of the Condition-action rules the agent will be able to acknowledge how to react with minimal reasoning.}}{13}{figure.4.3}\protected@file@percent }
\newlabel{fig:simple-reflux}{{4.3}{13}{Represents a simple-reflex agent. The refex agent provides a library with a set of rules, such as if a situation arises, whilst part of the Condition-action rules the agent will be able to acknowledge how to react with minimal reasoning}{figure.4.3}{}}
\@writefile{toc}{\contentsline {subsection}{\numberline {4.1.5}Model-based reflex agents}{13}{subsection.4.1.5}\protected@file@percent }
\@writefile{lof}{\contentsline {figure}{\numberline {4.4}{\ignorespaces Summarises Model-based reflex agent.}}{13}{figure.4.4}\protected@file@percent }
\newlabel{fig:model-reflex-agent}{{4.4}{13}{Summarises Model-based reflex agent}{figure.4.4}{}}
\BKM@entry{id=45,dest={73756273656374696F6E2E342E312E36},srcline={279}}{5C3337365C3337375C303030475C3030306F5C303030615C3030306C5C3030305C3034305C303030625C303030615C303030735C303030655C303030645C3030305C3034305C303030615C303030675C303030655C3030306E5C30303074}
\@writefile{lof}{\contentsline {figure}{\numberline {4.5}{\ignorespaces Representing Pseudocode of Model-Based agent. As you can see here, the Model-based agent slightly differs with the Simple agent, as it updates the precept according to the current state of the world using a model.}}{14}{figure.4.5}\protected@file@percent }
\newlabel{fig:simple-reflex-agent1}{{4.5}{14}{Representing Pseudocode of Model-Based agent. As you can see here, the Model-based agent slightly differs with the Simple agent, as it updates the precept according to the current state of the world using a model}{figure.4.5}{}}
\@writefile{toc}{\contentsline {subsection}{\numberline {4.1.6}Goal based agent}{14}{subsection.4.1.6}\protected@file@percent }
\@writefile{lof}{\contentsline {figure}{\numberline {4.6}{\ignorespaces Represents the goals based agent structure. Goals are defined in order to \textbf  {\textit  {choose}} actions \textbf  {\textit  {appropriate}} to achieve a goal.}}{14}{figure.4.6}\protected@file@percent }
\newlabel{fig:goals-based-agents}{{4.6}{14}{Represents the goals based agent structure. Goals are defined in order to \textbf {\textit {choose}} actions \textbf {\textit {appropriate}} to achieve a goal}{figure.4.6}{}}
\BKM@entry{id=46,dest={73756273656374696F6E2E342E312E37},srcline={292}}{5C3337365C3337375C303030555C303030745C303030695C3030306C5C303030695C303030745C303030795C3030305C3034305C303030625C303030615C303030735C303030655C303030645C3030305C3034305C303030615C303030675C303030655C3030306E5C303030745C30303073}
\BKM@entry{id=47,dest={73756273656374696F6E2E342E312E38},srcline={309}}{5C3337365C3337375C3030304C5C303030655C303030615C303030725C3030306E5C303030695C3030306E5C303030675C3030305C3034305C303030615C303030675C303030655C3030306E5C303030745C30303073}
\@writefile{toc}{\contentsline {subsection}{\numberline {4.1.7}Utility based agents}{15}{subsection.4.1.7}\protected@file@percent }
\@writefile{lof}{\contentsline {figure}{\numberline {4.7}{\ignorespaces Represents utility-based agent. The use of utility does not only focus on the agent's happiness based on a utility function, it influences the choice of actions rather than chosing an action that is appropriate of the goal.}}{15}{figure.4.7}\protected@file@percent }
\newlabel{fig:utility-based-agents}{{4.7}{15}{Represents utility-based agent. The use of utility does not only focus on the agent's happiness based on a utility function, it influences the choice of actions rather than chosing an action that is appropriate of the goal}{figure.4.7}{}}
\@writefile{toc}{\contentsline {subsection}{\numberline {4.1.8}Learning agents}{15}{subsection.4.1.8}\protected@file@percent }
\@writefile{lof}{\contentsline {figure}{\numberline {4.8}{\ignorespaces Represents learning agent, which learns from previous agent-programs by suggesting actions which lead to new experiences that are informative.}}{16}{figure.4.8}\protected@file@percent }
\newlabel{fig:learning-agent}{{4.8}{16}{Represents learning agent, which learns from previous agent-programs by suggesting actions which lead to new experiences that are informative}{figure.4.8}{}}
\gdef \@abspage@last{16}
