\relax 
\providecommand\hyper@newdestlabel[2]{}
\providecommand\BKM@entry[2]{}
\providecommand\HyperFirstAtBeginDocument{\AtBeginDocument}
\HyperFirstAtBeginDocument{\ifx\hyper@anchor\@undefined
\global\let\oldcontentsline\contentsline
\gdef\contentsline#1#2#3#4{\oldcontentsline{#1}{#2}{#3}}
\global\let\oldnewlabel\newlabel
\gdef\newlabel#1#2{\newlabelxx{#1}#2}
\gdef\newlabelxx#1#2#3#4#5#6{\oldnewlabel{#1}{{#2}{#3}}}
\AtEndDocument{\ifx\hyper@anchor\@undefined
\let\contentsline\oldcontentsline
\let\newlabel\oldnewlabel
\fi}
\fi}
\global\let\hyper@last\relax 
\gdef\HyperFirstAtBeginDocument#1{#1}
\providecommand\HyField@AuxAddToFields[1]{}
\providecommand\HyField@AuxAddToCoFields[2]{}
\BKM@entry{id=1,dest={636861707465722E31},srcline={11}}{496E74726F64756374696F6E20746F20536F66747761726520456E67696E656572696E67}
\BKM@entry{id=2,dest={73656374696F6E2E312E31},srcline={12}}{57687920536F66747761726520456E67696E656572696E673F}
\BKM@entry{id=3,dest={73656374696F6E2E312E32},srcline={16}}{4F726967696E206F6620536F66747761726520456E67696E656572696E67}
\BKM@entry{id=4,dest={73756273656374696F6E2E312E322E31},srcline={17}}{4E4154412053747564792047726F7570205C28313936385C29}
\BKM@entry{id=5,dest={73756273656374696F6E2E312E322E32},srcline={20}}{54686520497373756573207468617420636F6E6365726E73207468652061726561732066726F6D20536F66747761726520456E67696E656572696E67}
\BKM@entry{id=6,dest={73756273656374696F6E2E312E322E33},srcline={27}}{476170206265747765656E2064656D616E64732C20616E642074696D65}
\BKM@entry{id=7,dest={73656374696F6E2E312E33},srcline={29}}{507572706F7365206F6620536F66747761726520456E67696E656572696E67}
\@writefile{toc}{\contentsline {chapter}{\numberline {1}Introduction to Software Engineering}{1}{chapter.1}}
\@writefile{lof}{\addvspace {10\p@ }}
\@writefile{lot}{\addvspace {10\p@ }}
\@writefile{toc}{\contentsline {section}{\numberline {1.1}Why Software Engineering?}{1}{section.1.1}}
\@writefile{toc}{\contentsline {section}{\numberline {1.2}Origin of Software Engineering}{1}{section.1.2}}
\@writefile{toc}{\contentsline {subsection}{\numberline {1.2.1}NATA Study Group (1968)}{1}{subsection.1.2.1}}
\@writefile{toc}{\contentsline {paragraph}{1968}{1}{section*.1}}
\@writefile{toc}{\contentsline {subsection}{\numberline {1.2.2}The Issues that concerns the areas from Software Engineering}{1}{subsection.1.2.2}}
\@writefile{toc}{\contentsline {subsection}{\numberline {1.2.3}Gap between demands, and time}{1}{subsection.1.2.3}}
\BKM@entry{id=8,dest={73756273656374696F6E2E312E332E31},srcline={39}}{53797374656D73205468696E6B696E67}
\BKM@entry{id=9,dest={73756273656374696F6E2E312E332E32},srcline={44}}{436861726163746572697374696373206F6620612073797374656D}
\BKM@entry{id=10,dest={73756273656374696F6E2E312E332E33},srcline={55}}{436F6D706F6E656E7473206F6620612073797374656D73}
\BKM@entry{id=11,dest={73656374696F6E2E312E34},srcline={65}}{48696572617263687920696E2053797374656D73}
\BKM@entry{id=12,dest={73756273656374696F6E2E312E342E31},srcline={66}}{53756273797374656D73}
\@writefile{toc}{\contentsline {section}{\numberline {1.3}Purpose of Software Engineering}{2}{section.1.3}}
\@writefile{toc}{\contentsline {subsection}{\numberline {1.3.1}Systems Thinking}{2}{subsection.1.3.1}}
\@writefile{toc}{\contentsline {subsection}{\numberline {1.3.2}Characteristics of a system}{2}{subsection.1.3.2}}
\@writefile{toc}{\contentsline {paragraph}{Central Objective}{2}{section*.2}}
\@writefile{toc}{\contentsline {paragraph}{Integration}{2}{section*.3}}
\@writefile{toc}{\contentsline {paragraph}{Interaction}{2}{section*.4}}
\@writefile{toc}{\contentsline {paragraph}{Interdependence}{2}{section*.5}}
\@writefile{toc}{\contentsline {paragraph}{Organisation (hierarchical)}{2}{section*.6}}
\@writefile{toc}{\contentsline {subsection}{\numberline {1.3.3}Components of a systems}{2}{subsection.1.3.3}}
\@writefile{toc}{\contentsline {section}{\numberline {1.4}Hierarchy in Systems}{2}{section.1.4}}
\@writefile{toc}{\contentsline {subsection}{\numberline {1.4.1}Subsystems}{2}{subsection.1.4.1}}
\BKM@entry{id=13,dest={73756273656374696F6E2E312E342E32},srcline={69}}{53797374656D7320616E642045787465726E616C20456E7669726F6E6D656E7473}
\BKM@entry{id=14,dest={73656374696F6E2E312E35},srcline={78}}{456D657267656E742050726F70657274696573205C284265686176696F75722050726F706572746965735C29}
\BKM@entry{id=15,dest={73756273656374696F6E2E312E352E31},srcline={87}}{456D657267656E7420616E642046756E6374696F6E616C2050726F70657274696573}
\@writefile{toc}{\contentsline {subsection}{\numberline {1.4.2}Systems and External Environments}{3}{subsection.1.4.2}}
\@writefile{toc}{\contentsline {section}{\numberline {1.5}Emergent Properties (Behaviour Properties)}{3}{section.1.5}}
\@writefile{lof}{\contentsline {figure}{\numberline {1.1}{\ignorespaces Represents the Emergent properties}}{3}{figure.1.1}}
\newlabel{fig:screenshot009}{{1.1}{3}{Represents the Emergent properties}{figure.1.1}{}}
\@writefile{toc}{\contentsline {subsection}{\numberline {1.5.1}Emergent and Functional Properties}{3}{subsection.1.5.1}}
\@writefile{toc}{\contentsline {paragraph}{Emergent}{3}{section*.7}}
\@writefile{toc}{\contentsline {paragraph}{Functional}{3}{section*.8}}
\BKM@entry{id=16,dest={73656374696F6E2E312E36},srcline={100}}{53797374656D204D6F64656C6C696E67}
\BKM@entry{id=17,dest={73756273656374696F6E2E312E362E31},srcline={106}}{436F6D706F6E656E742D426173656420766973696F6E}
\BKM@entry{id=18,dest={73756273656374696F6E2E312E362E32},srcline={109}}{50726F706F73696E67206F7220496D70726F76696E6720616E204578697374696E672073797374656D}
\BKM@entry{id=19,dest={73756273656374696F6E2E312E362E33},srcline={117}}{546865206D61696E20666F637573206F662053797374656D204D6F64656C6C696E67}
\BKM@entry{id=20,dest={73756273656374696F6E2E312E362E34},srcline={126}}{576879204D6F64656C73206172652075736566756C}
\BKM@entry{id=21,dest={73756273656374696F6E2E312E362E35},srcline={132}}{4D6F64656C73206F766572204D6F64656C6C65642053797374656D73}
\@writefile{toc}{\contentsline {section}{\numberline {1.6}System Modelling}{4}{section.1.6}}
\@writefile{toc}{\contentsline {subsection}{\numberline {1.6.1}Component-Based vision}{4}{subsection.1.6.1}}
\@writefile{toc}{\contentsline {paragraph}{Component-based vision}{4}{section*.9}}
\@writefile{toc}{\contentsline {subsection}{\numberline {1.6.2}Proposing or Improving an Existing system}{4}{subsection.1.6.2}}
\@writefile{toc}{\contentsline {subsection}{\numberline {1.6.3}The main focus of System Modelling}{4}{subsection.1.6.3}}
\@writefile{toc}{\contentsline {subsection}{\numberline {1.6.4}Why Models are useful}{4}{subsection.1.6.4}}
\@writefile{toc}{\contentsline {paragraph}{\textbf  {Abstraction}}{4}{section*.10}}
\@writefile{toc}{\contentsline {paragraph}{\textbf  {Representation}}{4}{section*.11}}
\@writefile{toc}{\contentsline {paragraph}{\textbf  {Communication}}{4}{section*.12}}
\@writefile{toc}{\contentsline {paragraph}{\textbf  {Early evaluation}}{4}{section*.13}}
\BKM@entry{id=22,dest={73756273656374696F6E2E312E362E36},srcline={140}}{4D6F64656C7320696E20536F66747761726520456E67696E656572696E67}
\BKM@entry{id=23,dest={73756273656374696F6E2E312E362E37},srcline={157}}{554D4C202D20436F6D706F6E656E74204469616772616D73}
\@writefile{toc}{\contentsline {subsection}{\numberline {1.6.5}Models over Modelled Systems}{5}{subsection.1.6.5}}
\@writefile{toc}{\contentsline {subsection}{\numberline {1.6.6}Models in Software Engineering}{5}{subsection.1.6.6}}
\@writefile{toc}{\contentsline {subsubsection}{Unified Modelling Language (UML)}{5}{section*.14}}
\@writefile{toc}{\contentsline {subsection}{\numberline {1.6.7}UML - Component Diagrams}{5}{subsection.1.6.7}}
\@writefile{lof}{\contentsline {figure}{\numberline {1.2}{\ignorespaces A Component Diagram}}{5}{figure.1.2}}
\newlabel{fig:screenshot001}{{1.2}{5}{A Component Diagram}{figure.1.2}{}}
\@writefile{toc}{\contentsline {subsubsection}{Notations}{6}{section*.15}}
\@writefile{lof}{\contentsline {figure}{\numberline {1.3}{\ignorespaces A Component diagram illustrating User Account Management}}{6}{figure.1.3}}
\newlabel{fig:screenshot002}{{1.3}{6}{A Component diagram illustrating User Account Management}{figure.1.3}{}}
\@writefile{toc}{\contentsline {paragraph}{Required Interfaces}{6}{section*.16}}
\@writefile{lof}{\contentsline {figure}{\numberline {1.4}{\ignorespaces Required Interfaces are usually displayed as a \textbf  {\textit  {circle}} symbol.}}{6}{figure.1.4}}
\newlabel{fig:screenshot004}{{1.4}{6}{Required Interfaces are usually displayed as a \textbf {\textit {circle}} symbol}{figure.1.4}{}}
\@writefile{toc}{\contentsline {paragraph}{Provided Interface}{6}{section*.17}}
\@writefile{lof}{\contentsline {figure}{\numberline {1.5}{\ignorespaces A Provider Interface}}{6}{figure.1.5}}
\newlabel{fig:screenshot003}{{1.5}{6}{A Provider Interface}{figure.1.5}{}}
\@writefile{lof}{\contentsline {figure}{\numberline {1.6}{\ignorespaces Ball-Socket Connection between required and provider interface.}}{7}{figure.1.6}}
\newlabel{fig:screenshot005}{{1.6}{7}{Ball-Socket Connection between required and provider interface}{figure.1.6}{}}
\@writefile{lof}{\contentsline {figure}{\numberline {1.7}{\ignorespaces Arrow used for the dependency between the two interfaces.}}{7}{figure.1.7}}
\newlabel{fig:screenshot006}{{1.7}{7}{Arrow used for the dependency between the two interfaces}{figure.1.7}{}}
\@writefile{toc}{\contentsline {paragraph}{Box surrounding the internal components}{7}{section*.18}}
\@writefile{toc}{\contentsline {paragraph}{Port}{7}{section*.19}}
\@writefile{lof}{\contentsline {figure}{\numberline {1.8}{\ignorespaces Ports are often denoted as \textbf  {\textit  {square}} symbols.}}{7}{figure.1.8}}
\newlabel{fig:screenshot007}{{1.8}{7}{Ports are often denoted as \textbf {\textit {square}} symbols}{figure.1.8}{}}
\@writefile{toc}{\contentsline {paragraph}{Delegation Connectors}{8}{section*.20}}
\@writefile{lof}{\contentsline {figure}{\numberline {1.9}{\ignorespaces Delegation connectors are denoted as lines.}}{8}{figure.1.9}}
\newlabel{fig:screenshot008}{{1.9}{8}{Delegation connectors are denoted as lines}{figure.1.9}{}}
